[gd_scene load_steps=3 format=2]

[ext_resource path="res://tilesets/map_tiles.png" type="Texture" id=1]

[sub_resource type="CircleShape2D" id=2]
radius = 7.0

[node name="Rock" type="StaticBody2D"]
position = Vector2( 140, 90 )

[node name="Sprite" type="Sprite" parent="."]
texture = ExtResource( 1 )
region_enabled = true
region_rect = Rect2( 48, 0, 16, 16 )

[node name="CollisionShape2D" type="CollisionShape2D" parent="."]
shape = SubResource( 2 )
